<?xml version="1.0" encoding="utf-8"?>
<!-- Generator: Adobe Illustrator 16.0.0, SVG Export Plug-In . SVG Version: 6.00 Build 0)  -->
<!DOCTYPE svg PUBLIC "-//W3C//DTD SVG 1.1//EN" "http://www.w3.org/Graphics/SVG/1.1/DTD/svg11.dtd">
<svg version="1.1" id="Слой_1" xmlns="http://www.w3.org/2000/svg" xmlns:xlink="http://www.w3.org/1999/xlink" x="0px" y="0px"
	 width="410.948px" height="473.941px" viewBox="0 0 410.948 473.941" enable-background="new 0 0 410.948 473.941"
	 xml:space="preserve">
<polygon fill="#3498DB" points="410.948,0 410.948,473.941 0,473.941 0,373.667 "/>
</svg>
